{
	"_type": "export",
	"__export_format": 3,
	"__export_date": "2018-10-25T14:40:43.561Z",
	"__export_source": "insomnia.desktop.app:v6.0.2",
	"resources": [
		{
			"_id": "wrk_f7c5d832354d4031a61daa8ff99a1e85",
			"created": 1535833795960,
			"description": "",
			"modified": 1535833795960,
			"name": "Insomnia",
			"parentId": null,
			"_type": "workspace"
		},
		{
			"_id": "env_6aef2bb7c42a4707b3bb751757d7bad3",
			"color": null,
			"created": 1535833796003,
			"data": {
				"base_url": "localhost"
			},
			"isPrivate": false,
			"metaSortKey": 1535833796003,
			"modified": 1540366739017,
			"name": "New Environment",
			"parentId": "wrk_f7c5d832354d4031a61daa8ff99a1e85",
			"_type": "environment"
		},
		{
			"_id": "jar_b78c98a5973649a68c73337614ee607c",
			"cookies": [
				{
					"creation": "2018-10-08T08:39:59.173Z",
					"domain": "google.com",
					"expires": "2019-04-14T08:02:54.000Z",
					"hostOnly": false,
					"httpOnly": true,
					"id": "8967678480974404",
					"key": "NID",
					"lastAccessed": "2018-10-13T08:02:54.843Z",
					"path": "/",
					"value": "141=dcW7OkIdFeQfIZSDWEZ8XpBEndV9gMpH62Hrn8iBqurtRrsQvhA-kcSNKKZKr-bAnhqwHLRxbKcDSn-znHurKVTapSNIpJZVccW36zf42BrYgvfzLLPEcA0L8uHEasHU"
				},
				{
					"creation": "2018-10-13T08:02:54.842Z",
					"domain": "google.com",
					"expires": "2018-11-12T08:02:54.000Z",
					"hostOnly": false,
					"id": "2734375825400628",
					"key": "1P_JAR",
					"lastAccessed": "2018-10-13T08:02:54.842Z",
					"path": "/",
					"value": "2018-10-13-08"
				}
			],
			"created": 1535833796018,
			"modified": 1539417774846,
			"name": "Default Jar",
			"parentId": "wrk_f7c5d832354d4031a61daa8ff99a1e85",
			"_type": "cookie_jar"
		},
		{
			"_id": "fld_e38a6ca7f58e4b2ebb9cebd3c94a09d6",
			"created": 1536306408621,
			"description": "",
			"environment": {},
			"metaSortKey": -1536306408623,
			"modified": 1536306408621,
			"name": "lendabike",
			"parentId": "wrk_f7c5d832354d4031a61daa8ff99a1e85",
			"_type": "request_group"
		},
		{
			"_id": "fld_74dd9d810f2f44ffbd8390023ecf029b",
			"created": 1540366266181,
			"description": "",
			"environment": {},
			"metaSortKey": -1540366266181,
			"modified": 1540366266181,
			"name": "wordtester",
			"parentId": "wrk_f7c5d832354d4031a61daa8ff99a1e85",
			"_type": "request_group"
		},
		{
			"_id": "req_0caed6521f3443a7800882980173e42d",
			"authentication": {},
			"body": {
				"mimeType": "application/json",
				"text": "{\n\t\"email\": \"simo@aalto.fi\",\n\t\"password\": \"1234\"\n}"
			},
			"created": 1535833813180,
			"description": "",
			"headers": [
				{
					"id": "pair_27a328274a0c4252bd871e8d438f4475",
					"name": "Content-Type",
					"value": "application/json"
				}
			],
			"isPrivate": false,
			"metaSortKey": -1535833813180,
			"method": "POST",
			"modified": 1536302188641,
			"name": "create user",
			"parameters": [],
			"parentId": "wrk_f7c5d832354d4031a61daa8ff99a1e85",
			"settingDisableRenderRequestBody": false,
			"settingEncodeUrl": true,
			"settingMaxTimelineDataSize": 1000,
			"settingRebuildPath": true,
			"settingSendCookies": true,
			"settingStoreCookies": true,
			"url": "10.98.190.200/api/users/signup",
			"_type": "request"
		},
		{
			"_id": "req_cc3ee166a831479f81cd11288b117cf3",
			"authentication": {},
			"body": {
				"mimeType": "application/json",
				"text": "{\n\t\"email\": \"simo@aalto.fi\",\n\t\"password\": \"1234\"\n}"
			},
			"created": 1535833980126,
			"description": "",
			"headers": [
				{
					"id": "pair_27a328274a0c4252bd871e8d438f4475",
					"name": "Content-Type",
					"value": "application/json"
				},
				{
					"id": "pair_1bdbb79e673545c99efafcc14728f9c1",
					"name": "Authorization",
					"value": ""
				}
			],
			"isPrivate": false,
			"metaSortKey": -1535833813130,
			"method": "POST",
			"modified": 1536302212933,
			"name": "create user (Copy)",
			"parameters": [],
			"parentId": "wrk_f7c5d832354d4031a61daa8ff99a1e85",
			"settingDisableRenderRequestBody": false,
			"settingEncodeUrl": true,
			"settingMaxTimelineDataSize": 1000,
			"settingRebuildPath": true,
			"settingSendCookies": true,
			"settingStoreCookies": true,
			"url": "10.98.190.200/api/users/login",
			"_type": "request"
		},
		{
			"_id": "req_282a048c665f44e78de175e6ff3b8b95",
			"authentication": {},
			"body": {},
			"created": 1535879750864,
			"description": "",
			"headers": [],
			"isPrivate": false,
			"metaSortKey": -1535879750864,
			"method": "GET",
			"modified": 1536302157171,
			"name": "get memos",
			"parameters": [],
			"parentId": "wrk_f7c5d832354d4031a61daa8ff99a1e85",
			"settingDisableRenderRequestBody": false,
			"settingEncodeUrl": true,
			"settingMaxTimelineDataSize": 1000,
			"settingRebuildPath": true,
			"settingSendCookies": true,
			"settingStoreCookies": true,
			"url": "localhost/api/memos",
			"_type": "request"
		},
		{
			"_id": "req_8ab9aa2b17c34bd8b6c6ab8111626efe",
			"authentication": {},
			"body": {
				"mimeType": "application/json",
				"text": "{\n\t\"text\": \"no moi simo\"\n}"
			},
			"created": 1535880295185,
			"description": "",
			"headers": [
				{
					"id": "pair_f015f5fe13c84c83ad9eb5085bde149d",
					"name": "Content-Type",
					"value": "application/json"
				},
				{
					"id": "pair_cdea1ec6f7704f7199bd8f1ca09404a9",
					"name": "Authorization",
					"value": "Bearer eyJhbGciOiJIUzI1NiIsInR5cCI6IkpXVCJ9.eyJlbWFpbCI6InNpbW9AYWFsdG8uZmkiLCJ1c2VySWQiOiI1YjkyMTI4Y2Y4ODg4OTAwMzViYTA4YjAiLCJpYXQiOjE1MzYyOTk3NzEsImV4cCI6MTUzNjMwMzM3MX0.6eONhFT5TFNyku0gmTkrh-7qhYcOZyM8lAWA1ws8rOA"
				}
			],
			"isPrivate": false,
			"metaSortKey": -1535880295185,
			"method": "POST",
			"modified": 1538717332886,
			"name": "post memo",
			"parameters": [],
			"parentId": "wrk_f7c5d832354d4031a61daa8ff99a1e85",
			"settingDisableRenderRequestBody": false,
			"settingEncodeUrl": true,
			"settingMaxTimelineDataSize": 1000,
			"settingRebuildPath": true,
			"settingSendCookies": true,
			"settingStoreCookies": true,
			"url": "10.98.190.200/api/memos",
			"_type": "request"
		},
		{
			"_id": "req_b28e9eb51c2d4ef98cb489e2dc86b176",
			"authentication": {},
			"body": {},
			"created": 1539417769911,
			"description": "",
			"headers": [],
			"isPrivate": false,
			"metaSortKey": -1539417769911,
			"method": "GET",
			"modified": 1539417844204,
			"name": "google",
			"parameters": [],
			"parentId": "wrk_f7c5d832354d4031a61daa8ff99a1e85",
			"settingDisableRenderRequestBody": false,
			"settingEncodeUrl": true,
			"settingMaxTimelineDataSize": 1000,
			"settingRebuildPath": true,
			"settingSendCookies": true,
			"settingStoreCookies": true,
			"url": "google.com",
			"_type": "request"
		},
		{
			"_id": "fld_abe73507f4ad40d191f40ebfba2b9d97",
			"created": 1538717325615,
			"description": "",
			"environment": {},
			"metaSortKey": -1538717325615,
			"modified": 1538717325615,
			"name": "bikes",
			"parentId": "fld_e38a6ca7f58e4b2ebb9cebd3c94a09d6",
			"_type": "request_group"
		},
		{
			"_id": "req_00f9af63b4214f1c8197bc062cc1ad37",
			"authentication": {},
			"body": {},
			"created": 1536306417027,
			"description": "",
			"headers": [],
			"isPrivate": false,
			"metaSortKey": -1536306417027,
			"method": "GET",
			"modified": 1539418057179,
			"name": "get lendings",
			"parameters": [],
			"parentId": "fld_e38a6ca7f58e4b2ebb9cebd3c94a09d6",
			"settingDisableRenderRequestBody": false,
			"settingEncodeUrl": true,
			"settingMaxTimelineDataSize": 1000,
			"settingRebuildPath": true,
			"settingSendCookies": true,
			"settingStoreCookies": true,
			"url": "10.98.190.200/api/lendings",
			"_type": "request"
		},
		{
			"_id": "req_68f65cb64b3c4b428f0c2f88b4bee253",
			"authentication": {},
			"body": {
				"mimeType": "application/json",
				"text": "{\n\t\"lender\": \"iso S\",\n\t\"bikeId\": 0\n}"
			},
			"created": 1536306468431,
			"description": "",
			"headers": [
				{
					"id": "pair_a2173c5eaba04a6ca4882dab7683041f",
					"name": "Content-Type",
					"value": "application/json"
				}
			],
			"isPrivate": false,
			"metaSortKey": -1536093356106,
			"method": "POST",
			"modified": 1540366166759,
			"name": "create lending",
			"parameters": [],
			"parentId": "fld_e38a6ca7f58e4b2ebb9cebd3c94a09d6",
			"settingDisableRenderRequestBody": false,
			"settingEncodeUrl": true,
			"settingMaxTimelineDataSize": 1000,
			"settingRebuildPath": true,
			"settingSendCookies": true,
			"settingStoreCookies": true,
			"url": "10.98.190.200/api/lendings",
			"_type": "request"
		},
		{
			"_id": "req_43cc2dd31ee747bea9eab07271470748",
			"authentication": {},
			"body": {
				"mimeType": "application/json",
				"text": "{\n\t\"name\": \"roopen pyür\",\n\t\"bikeId\": 123\n}"
			},
			"created": 1536325256507,
			"description": "",
			"headers": [
				{
					"id": "pair_a2173c5eaba04a6ca4882dab7683041f",
					"name": "Content-Type",
					"value": "application/json"
				},
				{
					"id": "pair_9207d0d2bece44cb9e6419d4a6329f8d",
					"name": "Authorization",
					"value": "Bearer eyJhbGciOiJIUzI1NiIsInR5cCI6IkpXVCJ9.eyJuYW1lIjoicm9vdCIsInVzZXJJZCI6IjViOTY1ZWY1MjE1ZjhiMDA2ZTIxMTJiMSIsImlhdCI6MTUzNjU4MTc1MiwiZXhwIjoxNTM2NTg1MzUyfQ.B-b3Nk4KjblqNFeEfE515Bz8U-gOFWOGW1ixVUfuM5Q"
				}
			],
			"isPrivate": false,
			"metaSortKey": -1535986825645.5,
			"method": "POST",
			"modified": 1539417866791,
			"name": "create bike",
			"parameters": [],
			"parentId": "fld_e38a6ca7f58e4b2ebb9cebd3c94a09d6",
			"settingDisableRenderRequestBody": false,
			"settingEncodeUrl": true,
			"settingMaxTimelineDataSize": 1000,
			"settingRebuildPath": true,
			"settingSendCookies": true,
			"settingStoreCookies": true,
			"url": "localhost/api/bikes",
			"_type": "request"
		},
		{
			"_id": "req_eee0cf43e9424541898397ead05e6858",
			"authentication": {},
			"body": {},
			"created": 1536326005076,
			"description": "",
			"headers": [
				{
					"id": "pair_a2173c5eaba04a6ca4882dab7683041f",
					"name": "Content-Type",
					"value": "application/json"
				}
			],
			"isPrivate": false,
			"metaSortKey": -1535933560415.25,
			"method": "GET",
			"modified": 1539417813032,
			"name": "create bike (Copy)",
			"parameters": [],
			"parentId": "fld_e38a6ca7f58e4b2ebb9cebd3c94a09d6",
			"settingDisableRenderRequestBody": false,
			"settingEncodeUrl": true,
			"settingMaxTimelineDataSize": 1000,
			"settingRebuildPath": true,
			"settingSendCookies": true,
			"settingStoreCookies": true,
			"url": "localhost/api/bikes",
			"_type": "request"
		},
		{
			"_id": "req_d9c50db1c7404dc3afd45e01dcf44da9",
			"authentication": {},
			"body": {
				"mimeType": "application/json",
				"text": "{\n\t\"name\": \"root\",\n\t\"password\": \"1234\"\n}"
			},
			"created": 1536574964067,
			"description": "",
			"headers": [
				{
					"id": "pair_f251cf27046c4ecda3f25004e8f23611",
					"name": "Content-Type",
					"value": "application/json"
				}
			],
			"isPrivate": false,
			"metaSortKey": -1535933560365.25,
			"method": "POST",
			"modified": 1539417869193,
			"name": "login admins",
			"parameters": [],
			"parentId": "fld_e38a6ca7f58e4b2ebb9cebd3c94a09d6",
			"settingDisableRenderRequestBody": false,
			"settingEncodeUrl": true,
			"settingMaxTimelineDataSize": 1000,
			"settingRebuildPath": true,
			"settingSendCookies": true,
			"settingStoreCookies": true,
			"url": "localhost/api/admins/login?lastsForever=1",
			"_type": "request"
		},
		{
			"_id": "req_b74d9d94c13f4cdbb66dd836a2baa4cb",
			"authentication": {},
			"body": {
				"mimeType": "application/json",
				"text": "{\n\t\"name\": \"root\",\n\t\"password\": \"1234\"\n}"
			},
			"created": 1536581208029,
			"description": "",
			"headers": [
				{
					"id": "pair_f251cf27046c4ecda3f25004e8f23611",
					"name": "Content-Type",
					"value": "application/json"
				}
			],
			"isPrivate": false,
			"metaSortKey": -1535906927775.125,
			"method": "POST",
			"modified": 1539417966965,
			"name": "signup admins",
			"parameters": [],
			"parentId": "fld_e38a6ca7f58e4b2ebb9cebd3c94a09d6",
			"settingDisableRenderRequestBody": false,
			"settingEncodeUrl": true,
			"settingMaxTimelineDataSize": 1000,
			"settingRebuildPath": true,
			"settingSendCookies": true,
			"settingStoreCookies": true,
			"url": "{{base_url}}/api/admins/signup",
			"_type": "request"
		},
		{
			"_id": "req_df6d963d39e541ffa130b6473b23e24a",
			"authentication": {},
			"body": {
				"mimeType": "application/json",
				"text": "{\n\t\"lender\": \"simo\"\n}"
			},
			"created": 1537610150354,
			"description": "",
			"headers": [
				{
					"id": "pair_f58f9a045aaf4f56b84d444006dc26f9",
					"name": "Content-Type",
					"value": "application/json"
				}
			],
			"isPrivate": false,
			"metaSortKey": -1537610150354,
			"method": "PATCH",
			"modified": 1539418056307,
			"name": "return bike",
			"parameters": [],
			"parentId": "fld_e38a6ca7f58e4b2ebb9cebd3c94a09d6",
			"settingDisableRenderRequestBody": false,
			"settingEncodeUrl": true,
			"settingMaxTimelineDataSize": 1000,
			"settingRebuildPath": true,
			"settingSendCookies": true,
			"settingStoreCookies": true,
			"url": "localhost/api/lendings/return/5ba6066238ee5300436f825f",
			"_type": "request"
		},
		{
			"_id": "fld_3a26a405bf0c4cd3b4df39c56fb69d34",
			"created": 1540460256408,
			"description": "",
			"environment": {},
			"metaSortKey": -1540460256409,
			"modified": 1540460256408,
			"name": "classes",
			"parentId": "fld_74dd9d810f2f44ffbd8390023ecf029b",
			"_type": "request_group"
		},
		{
			"_id": "req_524fd7c69a824b79b0be73a78a5999ac",
			"authentication": {},
			"body": {},
			"created": 1540366281920,
			"description": "",
			"headers": [],
			"isPrivate": false,
			"metaSortKey": -1540366281920,
			"method": "GET",
			"modified": 1540455632839,
			"name": "get words",
			"parameters": [],
			"parentId": "fld_74dd9d810f2f44ffbd8390023ecf029b",
			"settingDisableRenderRequestBody": false,
			"settingEncodeUrl": true,
			"settingMaxTimelineDataSize": 1000,
			"settingRebuildPath": true,
			"settingSendCookies": true,
			"settingStoreCookies": true,
			"url": "{{base_url}}/api/words",
			"_type": "request"
		},
		{
			"_id": "req_02fddc0817164af595a5a659f612683c",
			"authentication": {},
			"body": {
				"mimeType": "application/json",
				"text": "{\n\t\"finnish\": \"peruna\",\n\t\"german\": \"der Kartoffel\"\n}"
			},
			"created": 1540366841846,
			"description": "",
			"headers": [
				{
					"id": "pair_05d2b256674a48f6838e8e2615114e00",
					"name": "Content-Type",
					"value": "application/json"
				}
			],
			"isPrivate": false,
			"metaSortKey": -1539892025915.5,
			"method": "POST",
			"modified": 1540367584606,
			"name": "post words",
			"parameters": [],
			"parentId": "fld_74dd9d810f2f44ffbd8390023ecf029b",
			"settingDisableRenderRequestBody": false,
			"settingEncodeUrl": true,
			"settingMaxTimelineDataSize": 1000,
			"settingRebuildPath": true,
			"settingSendCookies": true,
			"settingStoreCookies": true,
			"url": "{{base_url}}/api/words",
			"_type": "request"
		},
		{
			"_id": "req_6ef143c2626a4729b6b8b5c9a73ee271",
			"authentication": {},
			"body": {
				"mimeType": "application/json",
				"text": "{\n\t\"_id\": \"5bd022aa4b5f64004fa3f576\",\n\t\"translations\": {\n\t\t\"finnish\": \"kana\",\n\t\t\"english\": \"chicken\"\n\t}\n}"
			},
			"created": 1540367554606,
			"description": "",
			"headers": [
				{
					"id": "pair_05d2b256674a48f6838e8e2615114e00",
					"name": "Content-Type",
					"value": "application/json"
				}
			],
			"isPrivate": false,
			"metaSortKey": -1539654897913.25,
			"method": "PATCH",
			"modified": 1540368071218,
			"name": "patch words",
			"parameters": [],
			"parentId": "fld_74dd9d810f2f44ffbd8390023ecf029b",
			"settingDisableRenderRequestBody": false,
			"settingEncodeUrl": true,
			"settingMaxTimelineDataSize": 1000,
			"settingRebuildPath": true,
			"settingSendCookies": true,
			"settingStoreCookies": true,
			"url": "{{base_url}}/api/words",
			"_type": "request"
		},
		{
			"_id": "req_67defcdd14434b0f86d2c00165a06575",
			"authentication": {},
			"body": {},
			"created": 1538717346798,
			"description": "",
			"headers": [],
			"isPrivate": false,
			"metaSortKey": -1538717346798,
			"method": "GET",
			"modified": 1538717532468,
			"name": "get bikes",
			"parameters": [],
			"parentId": "fld_abe73507f4ad40d191f40ebfba2b9d97",
			"settingDisableRenderRequestBody": false,
			"settingEncodeUrl": true,
			"settingMaxTimelineDataSize": 1000,
			"settingRebuildPath": true,
			"settingSendCookies": true,
			"settingStoreCookies": true,
			"url": "{{base_url}}/api/bikes",
			"_type": "request"
		},
		{
			"_id": "req_b2a44b33393b45de885ce7e165923a53",
			"authentication": {},
			"body": {
				"mimeType": "multipart/form-data",
				"params": [
					{
						"fileName": "/tmp/chicken.jpeg",
						"id": "pair_be3a1a46897d4a55af7a170beb48649c",
						"name": "image",
						"type": "file",
						"value": ""
					},
					{
						"id": "pair_3decf747dc9e4da090e813a7d61113d2",
						"name": "bikeNumber",
						"value": "6"
					}
				]
			},
			"created": 1538717548497,
			"description": "",
			"headers": [
				{
					"id": "pair_74cba66e86524195b0bfc230b8c56d1e",
					"name": "Content-Type",
					"value": "multipart/form-data"
				},
				{
					"id": "pair_1939e988da1440859fd0e87ebf92296f",
					"name": "Authorization",
					"value": "Bearer eyJhbGciOiJIUzI1NiIsInR5cCI6IkpXVCJ9.eyJuYW1lIjoicm9vdCIsInVzZXJJZCI6IjViOTY1ZWY1MjE1ZjhiMDA2ZTIxMTJiMSIsImlhdCI6MTUzODcxNzg0MSwiZXhwIjoxNTcwMjUzODQxfQ.e22gj4yAWyIRP-8J1In7uQHTD8d5cmepaihTuyWm0RA"
				}
			],
			"isPrivate": false,
			"metaSortKey": -1538717548497,
			"method": "POST",
			"modified": 1539417810859,
			"name": "post image",
			"parameters": [],
			"parentId": "fld_abe73507f4ad40d191f40ebfba2b9d97",
			"settingDisableRenderRequestBody": false,
			"settingEncodeUrl": true,
			"settingMaxTimelineDataSize": 1000,
			"settingRebuildPath": true,
			"settingSendCookies": true,
			"settingStoreCookies": true,
			"url": "{{ base_url  }}/api/bikes/images",
			"_type": "request"
		},
		{
			"_id": "req_8182b1797799433b8c39d21f6c2e54bc",
			"authentication": {},
			"body": {},
			"created": 1540460261690,
			"description": "",
			"headers": [],
			"isPrivate": false,
			"metaSortKey": -1540460261690,
			"method": "GET",
			"modified": 1540461962981,
			"name": "get classes",
			"parameters": [],
			"parentId": "fld_3a26a405bf0c4cd3b4df39c56fb69d34",
			"settingDisableRenderRequestBody": false,
			"settingEncodeUrl": true,
			"settingMaxTimelineDataSize": 1000,
			"settingRebuildPath": true,
			"settingSendCookies": true,
			"settingStoreCookies": true,
			"url": "{{ base_url  }}/api/classes",
			"_type": "request"
		},
		{
			"_id": "req_68ad43861db2490b98ac0cca10a93e51",
			"authentication": {},
			"body": {
				"mimeType": "application/json",
				"text": "{\n\t\"name\": \"regular\"\n}"
			},
			"created": 1540460683446,
			"description": "",
			"headers": [
				{
					"id": "pair_ddffca9a28194719956355f990b0d268",
					"name": "Content-Type",
					"value": "application/json"
				}
			],
			"isPrivate": false,
			"metaSortKey": -1540413271805,
			"method": "POST",
			"modified": 1540461951206,
			"name": "create class",
			"parameters": [],
			"parentId": "fld_3a26a405bf0c4cd3b4df39c56fb69d34",
			"settingDisableRenderRequestBody": false,
			"settingEncodeUrl": true,
			"settingMaxTimelineDataSize": 1000,
			"settingRebuildPath": true,
			"settingSendCookies": true,
			"settingStoreCookies": true,
			"url": "{{ base_url  }}/api/classes",
			"_type": "request"
		},
		{
			"_id": "req_f623e4f856ec4df1a23e08fed3e5b857",
			"authentication": {},
			"body": {
				"mimeType": "application/json",
				"text": "{\n\t\"parentId\": \"5bd190cc923d6c01ddef1cda\",\n\t\"childrenId\": \"5bd1957f20c441029df9f0d3\"\n}"
			},
			"created": 1540460791434,
			"description": "",
			"headers": [
				{
					"id": "pair_ddffca9a28194719956355f990b0d268",
					"name": "Content-Type",
					"value": "application/json"
				}
			],
			"isPrivate": false,
			"metaSortKey": -1540389776862.5,
			"method": "PATCH",
			"modified": 1540461957674,
			"name": "add children",
			"parameters": [],
			"parentId": "fld_3a26a405bf0c4cd3b4df39c56fb69d34",
			"settingDisableRenderRequestBody": false,
			"settingEncodeUrl": true,
			"settingMaxTimelineDataSize": 1000,
			"settingRebuildPath": true,
			"settingSendCookies": true,
			"settingStoreCookies": true,
			"url": "{{ base_url  }}/api/classes/extend",
			"_type": "request"
		}
	]
}